{
    "UserAgent": "aws-amplify/cli",
    "Version": "0.1.0",
    "IdentityManager": {
        "Default": {}
    },
    "CredentialsProvider": {
        "CognitoIdentity": {
            "Default": {
                "PoolId": "us-east-1:bb0a198d-091e-4852-8a2f-ead5cc1836df",
                "Region": "us-east-1"
            }
        }
    },
    "PinpointAnalytics": {
        "Default": {
            "AppId": "fa283e0d4cbf468e8bb1e448d0d7846f",
            "Region": "us-east-1"
        }
    },
    "PinpointTargeting": {
        "Default": {
            "Region": "us-east-1"
        }
    }
}